{
    "program": "          \n                wait_sync  4                                                    \n                reset_ph                                                        \n                upd_param  4                                                    \n                set_mrk    15                # set markers to 15                \n                move       0,R0              # Initialize acquisition bin_idx   \n                move       1,R1              # iterator for loop with label st  \n  start:                                                                        \n                                                                                \n                move       0,R10             # Store acq_channel in R10.        \n                move       10000,R13         # iterator for loop with label lo  \n  looped_acq9:                                                                  \n                acquire    0,R0,10000                                           \n                wait       400                                                  \n                loop       R13,@looped_acq9                                     \n                add        R0,1,R0           # Increment bin_idx for ch0        \n                                                                                \n                loop       R1,@start                                            \n                set_mrk    0                 # set markers to 0                 \n                upd_param  4                                                    \n                stop                                                            \n",
    "waveforms": {},
    "weights": {},
    "acquisitions": {
        "0": {
            "num_bins": 1,
            "index": 0
        }
    }
}